<?xml version="1.0"?>
<svg xmlns="http://www.w3.org/2000/svg" width="109" height="109" viewBox="0 0 109 109" fill="none">
  <path d="M36.3182 18.1364V4.5M90.8636 36.3182H104.5M36.3182 90.8636V104.5M18.1364 36.3182H4.5M72.6818 18.1364V4.5M72.6818 90.8636V104.5M90.8636 72.6818H104.5M18.1364 72.6818H4.5M54.5 18.1364V4.5M54.5 90.8636V104.5M90.8636 54.5H104.5M18.1364 54.5H4.5M27.2273 18.1364H81.7727C86.7935 18.1364 90.8636 22.2065 90.8636 27.2273V81.7727C90.8636 86.7935 86.7935 90.8636 81.7727 90.8636H27.2273C22.2065 90.8636 18.1364 86.7935 18.1364 81.7727V27.2273C18.1364 22.2065 22.2065 18.1364 27.2273 18.1364ZM40.8636 36.3182H68.1364C70.6467 36.3182 72.6818 38.3533 72.6818 40.8636V68.1364C72.6818 70.6467 70.6467 72.6818 68.1364 72.6818H40.8636C38.3533 72.6818 36.3182 70.6467 36.3182 68.1364V40.8636C36.3182 38.3533 38.3533 36.3182 40.8636 36.3182Z" stroke="#D9D9D9" stroke-width="9" stroke-linecap="round"/>
</svg>
