<svg xmlns="http://www.w3.org/2000/svg" fill="none" viewBox="0 0 19 23">
  <g clip-path="url(#a)">
    <path stroke="#000" stroke-linecap="round" stroke-linejoin="round" stroke-width="2" d="M9 21.25s8-4 8-10v-7l-8-3-8 3v7c0 6 8 10 8 10ZM9 7.245v4"/>
    <circle cx="9" cy="14.5" r="1" fill="#000"/>
  </g>
  <defs>
    <clipPath id="a">
      <path fill="#fff" d="M0 0h18.5v22.5H0z"/>
    </clipPath>
  </defs>
  <!-- Icon adapted from feathericons.com -->
</svg>
