<svg xmlns="http://www.w3.org/2000/svg" width="800" height="800" viewBox="0 0 24 24">
  <path d="M5 3a1 1 0 0 0-1 1v16a1 1 0 0 0 1 1h5a1 1 0 0 0 1-1V4a1 1 0 0 0-1-1Zm4 16H6V5h3Zm5-16a1 1 0 0 0-1 1v16a1 1 0 0 0 1 1h5a1 1 0 0 0 1-1V4a1 1 0 0 0-1-1Zm4 16h-3V5h3Z"/>
</svg>
